<svg xmlns="http://www.w3.org/2000/svg" width="98" height="40" viewBox="0 0 98 40">
    <g fill="none" fill-rule="evenodd">
        <rect width="98" height="40" fill="#E2E6E7" rx="8"/>
        <rect width="24" height="24" x="16" y="8" fill="#FFF" rx="4"/>
        <rect width="10" height="10" x="23" y="15" fill="#E02612" rx="2"/>
        <text fill="#2C373E" font-family="Roboto-Bold, Roboto" font-size="16" font-weight="bold">
            <tspan x="48" y="26">Stop</tspan>
        </text>
    </g>
</svg>
