<svg xmlns="http://www.w3.org/2000/svg" width="122" height="40" viewBox="0 0 122 40">
    <defs>
        <linearGradient id="a" x1="0%" y1="0%" y2="0%">
            <stop offset="0%" stop-color="#FF9452"/>
            <stop offset="49.522%" stop-color="#F96D28"/>
            <stop offset="100%" stop-color="#FF445E"/>
        </linearGradient>
    </defs>
    <g fill="none" fill-rule="evenodd">
        <rect width="122" height="40" fill="#E2E6E7" rx="8"/>
        <circle cx="28" cy="20" r="12" fill="#FFF"/>
        <path fill="url(#a)" d="M33.074 21.733l-5.766 3.898c-1.405.95-3.308-.048-3.308-1.733v-7.797c0-1.686 1.903-2.683 3.308-1.733l5.766 3.898a2.088 2.088 0 0 1 0 3.467"/>
        <text fill="#2C373E" font-family="Roboto-Bold, Roboto" font-size="16" font-weight="bold">
            <tspan x="48" y="26">Preview</tspan>
        </text>
    </g>
</svg>
