<svg xmlns="http://www.w3.org/2000/svg" width="6" height="6" viewBox="0 0 6 6">
    <rect width="6" height="6" x="229" y="116" fill="#5A666A" fill-rule="evenodd" rx="2" transform="translate(-229 -116)"/>
</svg>
